%YAML 1.1
%TAG !u! tag:unity3d.com,2011:
--- !u!687078895 &4343727234628468602
SpriteAtlas:
  m_ObjectHideFlags: 0
  m_CorrespondingSourceObject: {fileID: 0}
  m_PrefabInstance: {fileID: 0}
  m_PrefabAsset: {fileID: 0}
  m_Name: atlas_cyber
  m_EditorData:
    serializedVersion: 2
    textureSettings:
      serializedVersion: 2
      anisoLevel: 1
      compressionQuality: 50
      maxTextureSize: 2048
      textureCompression: 0
      filterMode: 1
      generateMipMaps: 1
      readable: 1
      crunchedCompression: 0
      sRGB: 1
    platformSettings:
    - serializedVersion: 3
      m_BuildTarget: DefaultTexturePlatform
      m_MaxTextureSize: 1024
      m_ResizeAlgorithm: 0
      m_TextureFormat: -1
      m_TextureCompression: 1
      m_CompressionQuality: 50
      m_CrunchedCompression: 1
      m_AllowsAlphaSplitting: 0
      m_Overridden: 0
      m_IgnorePlatformSupport: 0
      m_AndroidETC2FallbackOverride: 0
      m_ForceMaximumCompressionQuality_BC6H_BC7: 0
    - serializedVersion: 3
      m_BuildTarget: Android
      m_MaxTextureSize: 2048
      m_ResizeAlgorithm: 0
      m_TextureFormat: 48
      m_TextureCompression: 1
      m_CompressionQuality: 100
      m_CrunchedCompression: 1
      m_AllowsAlphaSplitting: 0
      m_Overridden: 1
      m_IgnorePlatformSupport: 0
      m_AndroidETC2FallbackOverride: 0
      m_ForceMaximumCompressionQuality_BC6H_BC7: 0
    packingSettings:
      serializedVersion: 2
      padding: 4
      blockOffset: 1
      allowAlphaSplitting: 0
      enableRotation: 0
      enableTightPacking: 0
      enableAlphaDilation: 0
    secondaryTextureSettings: {}
    variantMultiplier: 1
    packables:
    - {fileID: 2800000, guid: de629b200bb6ea34aab392732b87f084, type: 3}
    - {fileID: 2800000, guid: 46808dde51c2a11458556a26f8706ad9, type: 3}
    - {fileID: 2800000, guid: 2c0cdc26d00a63c448202f0dd2ac5eea, type: 3}
    - {fileID: 2800000, guid: f199fb2ab638b514da3d21e6f0d44743, type: 3}
    - {fileID: 2800000, guid: cffe57323b1ae3f45a57f63fcc6e6851, type: 3}
    - {fileID: 2800000, guid: 553d67d1168895c48b97db941e784284, type: 3}
    - {fileID: 2800000, guid: ee409b6af6485584cb2913d3783b3cde, type: 3}
    - {fileID: 2800000, guid: f1a7936fb884d0544b5d682440422be0, type: 3}
    - {fileID: 2800000, guid: 931a3f239b4a6d447885f2eb042a05d5, type: 3}
    - {fileID: 2800000, guid: 1b9d404abefba3d4390b5d3d239463f3, type: 3}
    - {fileID: 2800000, guid: 25e60fd9e11800e4ab042656fc6861c7, type: 3}
    - {fileID: 2800000, guid: 750a16c8991343d449c65a94fed53edc, type: 3}
    - {fileID: 2800000, guid: f8507e816d652044393524c3807f52c6, type: 3}
    - {fileID: 2800000, guid: a754be7f65698d249a00a23e0dda04b1, type: 3}
    - {fileID: 2800000, guid: 096ccdb371b9583489b8b07bf0b75e7e, type: 3}
    - {fileID: 2800000, guid: a9978bfc0ba8a684ba3941bfa2c09f0f, type: 3}
    - {fileID: 2800000, guid: b3ea0f097d50fed48aa45f02e0fac8d1, type: 3}
    - {fileID: 2800000, guid: 88e9bcf401455424e98ea7c7926ce490, type: 3}
    - {fileID: 2800000, guid: 8d7fccf70b9f4384a9c3c867eb91b9e6, type: 3}
    - {fileID: 2800000, guid: 79e6f2d81106d1946a15ab8ed4a6dd83, type: 3}
    - {fileID: 2800000, guid: 4a6f0063019a8104687e1bff6fc1ccfb, type: 3}
    - {fileID: 2800000, guid: f25419cfb696b6e408060b68e0de140f, type: 3}
    - {fileID: 2800000, guid: 15e70d9c5452cad428ad37c288fd5789, type: 3}
    - {fileID: 2800000, guid: 142e52cb938826f4381f25c5ef10a0c9, type: 3}
    - {fileID: 2800000, guid: ba73a92641cbc394193d50543520e2b8, type: 3}
    - {fileID: 2800000, guid: e3ee56c8425690b43980677ee8a99a59, type: 3}
    - {fileID: 2800000, guid: 2464f1fd2f7ec944e8ffa7463729ab58, type: 3}
    - {fileID: 2800000, guid: 900cd5cff4561074aa21a023156905f6, type: 3}
    - {fileID: 2800000, guid: 4a2de5b226ef74e439edcf4ee7e9197e, type: 3}
    - {fileID: 2800000, guid: cbc92d50b22098d4dbe8a4c875d178bf, type: 3}
    - {fileID: 2800000, guid: 63605304427bb7740b076904cd089757, type: 3}
    - {fileID: 2800000, guid: bf8bdae41a1bb004780115b30b766ffa, type: 3}
    - {fileID: 2800000, guid: 53de39d86bb0af848853f8199a5a2b0a, type: 3}
    - {fileID: 2800000, guid: bddb064595206b5479f96d49c56389ac, type: 3}
    - {fileID: 2800000, guid: 588e661770188e644b4e20718e6e7bb7, type: 3}
    - {fileID: 2800000, guid: f1fb80513b6f99048ad791590b27b016, type: 3}
    bindAsDefault: 1
    isAtlasV2: 0
    cachedData: {fileID: 0}
    packedSpriteRenderDataKeys:
    - de629b200bb6ea34aab392732b87f084: 21300000
    - cbc92d50b22098d4dbe8a4c875d178bf: 21300000
    - f1fb80513b6f99048ad791590b27b016: 21300000
    - f8507e816d652044393524c3807f52c6: 21300000
    - 553d67d1168895c48b97db941e784284: 21300000
    - cffe57323b1ae3f45a57f63fcc6e6851: 21300000
    - 4a2de5b226ef74e439edcf4ee7e9197e: 21300000
    - 931a3f239b4a6d447885f2eb042a05d5: 21300000
    - 4a6f0063019a8104687e1bff6fc1ccfb: 21300000
    - 096ccdb371b9583489b8b07bf0b75e7e: 21300000
    - 63605304427bb7740b076904cd089757: 21300000
    - bf8bdae41a1bb004780115b30b766ffa: 21300000
    - 88e9bcf401455424e98ea7c7926ce490: 21300000
    - bddb064595206b5479f96d49c56389ac: 21300000
    - ba73a92641cbc394193d50543520e2b8: 21300000
    - 2c0cdc26d00a63c448202f0dd2ac5eea: 21300000
    - 588e661770188e644b4e20718e6e7bb7: 21300000
    - 8d7fccf70b9f4384a9c3c867eb91b9e6: 21300000
    - 750a16c8991343d449c65a94fed53edc: 21300000
    - e3ee56c8425690b43980677ee8a99a59: 21300000
    - 79e6f2d81106d1946a15ab8ed4a6dd83: 21300000
    - 53de39d86bb0af848853f8199a5a2b0a: 21300000
    - b3ea0f097d50fed48aa45f02e0fac8d1: 21300000
    - 25e60fd9e11800e4ab042656fc6861c7: 21300000
    - f199fb2ab638b514da3d21e6f0d44743: 21300000
    - 1b9d404abefba3d4390b5d3d239463f3: 21300000
    - ee409b6af6485584cb2913d3783b3cde: 21300000
    - 142e52cb938826f4381f25c5ef10a0c9: 21300000
    - 15e70d9c5452cad428ad37c288fd5789: 21300000
    - a9978bfc0ba8a684ba3941bfa2c09f0f: 21300000
    - 2464f1fd2f7ec944e8ffa7463729ab58: 21300000
    - 46808dde51c2a11458556a26f8706ad9: 21300000
    - f1a7936fb884d0544b5d682440422be0: 21300000
    - a754be7f65698d249a00a23e0dda04b1: 21300000
    - 900cd5cff4561074aa21a023156905f6: 21300000
    - f25419cfb696b6e408060b68e0de140f: 21300000
  m_MasterAtlas: {fileID: 0}
  m_PackedSprites:
  - {fileID: 21300000, guid: de629b200bb6ea34aab392732b87f084, type: 3}
  - {fileID: 21300000, guid: cbc92d50b22098d4dbe8a4c875d178bf, type: 3}
  - {fileID: 21300000, guid: f1fb80513b6f99048ad791590b27b016, type: 3}
  - {fileID: 21300000, guid: f8507e816d652044393524c3807f52c6, type: 3}
  - {fileID: 21300000, guid: 553d67d1168895c48b97db941e784284, type: 3}
  - {fileID: 21300000, guid: cffe57323b1ae3f45a57f63fcc6e6851, type: 3}
  - {fileID: 21300000, guid: 4a2de5b226ef74e439edcf4ee7e9197e, type: 3}
  - {fileID: 21300000, guid: 931a3f239b4a6d447885f2eb042a05d5, type: 3}
  - {fileID: 21300000, guid: 4a6f0063019a8104687e1bff6fc1ccfb, type: 3}
  - {fileID: 21300000, guid: 096ccdb371b9583489b8b07bf0b75e7e, type: 3}
  - {fileID: 21300000, guid: 63605304427bb7740b076904cd089757, type: 3}
  - {fileID: 21300000, guid: bf8bdae41a1bb004780115b30b766ffa, type: 3}
  - {fileID: 21300000, guid: 88e9bcf401455424e98ea7c7926ce490, type: 3}
  - {fileID: 21300000, guid: bddb064595206b5479f96d49c56389ac, type: 3}
  - {fileID: 21300000, guid: ba73a92641cbc394193d50543520e2b8, type: 3}
  - {fileID: 21300000, guid: 2c0cdc26d00a63c448202f0dd2ac5eea, type: 3}
  - {fileID: 21300000, guid: 588e661770188e644b4e20718e6e7bb7, type: 3}
  - {fileID: 21300000, guid: 8d7fccf70b9f4384a9c3c867eb91b9e6, type: 3}
  - {fileID: 21300000, guid: 750a16c8991343d449c65a94fed53edc, type: 3}
  - {fileID: 21300000, guid: e3ee56c8425690b43980677ee8a99a59, type: 3}
  - {fileID: 21300000, guid: 79e6f2d81106d1946a15ab8ed4a6dd83, type: 3}
  - {fileID: 21300000, guid: 53de39d86bb0af848853f8199a5a2b0a, type: 3}
  - {fileID: 21300000, guid: b3ea0f097d50fed48aa45f02e0fac8d1, type: 3}
  - {fileID: 21300000, guid: 25e60fd9e11800e4ab042656fc6861c7, type: 3}
  - {fileID: 21300000, guid: f199fb2ab638b514da3d21e6f0d44743, type: 3}
  - {fileID: 21300000, guid: 1b9d404abefba3d4390b5d3d239463f3, type: 3}
  - {fileID: 21300000, guid: ee409b6af6485584cb2913d3783b3cde, type: 3}
  - {fileID: 21300000, guid: 142e52cb938826f4381f25c5ef10a0c9, type: 3}
  - {fileID: 21300000, guid: 15e70d9c5452cad428ad37c288fd5789, type: 3}
  - {fileID: 21300000, guid: a9978bfc0ba8a684ba3941bfa2c09f0f, type: 3}
  - {fileID: 21300000, guid: 2464f1fd2f7ec944e8ffa7463729ab58, type: 3}
  - {fileID: 21300000, guid: 46808dde51c2a11458556a26f8706ad9, type: 3}
  - {fileID: 21300000, guid: f1a7936fb884d0544b5d682440422be0, type: 3}
  - {fileID: 21300000, guid: a754be7f65698d249a00a23e0dda04b1, type: 3}
  - {fileID: 21300000, guid: 900cd5cff4561074aa21a023156905f6, type: 3}
  - {fileID: 21300000, guid: f25419cfb696b6e408060b68e0de140f, type: 3}
  m_PackedSpriteNamesToIndex:
  - Sharp HD One Corner Filled
  - Color Corrected Cyber
  - Settings Cyber
  - ReSync Cyber
  - Dropdown Cyber
  - Checkmark Cyber
  - Forward 10sec Cyber
  - Pause Cyber
  - Video Player Cyber
  - Seek Cyber
  - Color RAW Cyber
  - Audio 2D Cyber
  - Stop Cyber
  - Loop OFF Cyber
  - Volume None Cyber
  - Sharp HD
  - Loop ON Cyber
  - URL Alt Cyber
  - Reload Cyber
  - Sharp HD OneCorner BGFill
  - URL Cyber
  - Audio 3D Cyber
  - Skip Cyber
  - Reload Alt Cyber
  - Back Skip Cyber
  - Play Cyber
  - Padlock Locked Cyber
  - Volume Medium Cyber
  - Volume Low Cyber
  - Select Cyber
  - Back Rewind Cyber
  - Sharp HD One Corner
  - Padlock Unlocked Cyber
  - Seek Alt Cyber
  - Back 10sec Cyber
  - Volume High Cyber
  m_RenderDataMap: {}
  m_Tag: atlas_cyber
  m_IsVariant: 0
